Library\Bee\artifacts\mvdfrm\UnityEditor.Graphs.dll_BD1B3EAAB9B0F7F0.mvfrm
Library\Bee\artifacts\mvdfrm\UnityEditor.CoreModule.dll_056545BA6737ABBE.mvfrm
Library\Bee\artifacts\mvdfrm\UnityEditor.DeviceSimulatorModule.dll_62188D223B666063.mvfrm
Library\Bee\artifacts\mvdfrm\UnityEditor.DiagnosticsModule.dll_EB6C288DB1BF41F1.mvfrm
Library\Bee\artifacts\mvdfrm\UnityEditor.dll_76C74DFD07E7F177.mvfrm
Library\Bee\artifacts\mvdfrm\UnityEditor.GraphViewModule.dll_714A367F011611A8.mvfrm
Library\Bee\artifacts\mvdfrm\UnityEditor.PackageManagerUIModule.dll_C0A6A0B652A6779A.mvfrm
Library\Bee\artifacts\mvdfrm\UnityEditor.QuickSearchModule.dll_767BA99B0A963E4A.mvfrm
Library\Bee\artifacts\mvdfrm\UnityEditor.SceneTemplateModule.dll_C9201B649EF88A0B.mvfrm
Library\Bee\artifacts\mvdfrm\UnityEditor.TextCoreFontEngineModule.dll_15AB0752CF6C6F7C.mvfrm
Library\Bee\artifacts\mvdfrm\UnityEditor.TextCoreTextEngineModule.dll_5D933DC45EF0289A.mvfrm
Library\Bee\artifacts\mvdfrm\UnityEditor.UIBuilderModule.dll_C5D2E39B73CE8ADC.mvfrm
Library\Bee\artifacts\mvdfrm\UnityEditor.UIElementsModule.dll_42015F4F395CEE3A.mvfrm
Library\Bee\artifacts\mvdfrm\UnityEditor.UIElementsSamplesModule.dll_6B45957AC258B4D3.mvfrm
Library\Bee\artifacts\mvdfrm\UnityEditor.UIServiceModule.dll_FEC4F4FE5D05DAF6.mvfrm
Library\Bee\artifacts\mvdfrm\UnityEditor.UnityConnectModule.dll_4ACA7E85FCC43974.mvfrm
Library\Bee\artifacts\mvdfrm\UnityEngine.AccessibilityModule.dll_FBC586FB9F6EB1A8.mvfrm
Library\Bee\artifacts\mvdfrm\UnityEngine.AIModule.dll_1FDC13A1F5686E52.mvfrm
Library\Bee\artifacts\mvdfrm\UnityEngine.AndroidJNIModule.dll_C04A4822827C5D10.mvfrm
Library\Bee\artifacts\mvdfrm\UnityEngine.AnimationModule.dll_3FCFB2A7DB72E64E.mvfrm
Library\Bee\artifacts\mvdfrm\UnityEngine.ARModule.dll_D94ED8A55285CD1B.mvfrm
Library\Bee\artifacts\mvdfrm\UnityEngine.AssetBundleModule.dll_BA64DC8C6CFCF33C.mvfrm
Library\Bee\artifacts\mvdfrm\UnityEngine.AudioModule.dll_89BAAAE3678D03C0.mvfrm
Library\Bee\artifacts\mvdfrm\UnityEngine.ClothModule.dll_F0A307DE41A9E2A4.mvfrm
Library\Bee\artifacts\mvdfrm\UnityEngine.ClusterInputModule.dll_CA66F39BAE4C0C3A.mvfrm
Library\Bee\artifacts\mvdfrm\UnityEngine.ClusterRendererModule.dll_67C54F93AB216DE7.mvfrm
Library\Bee\artifacts\mvdfrm\UnityEngine.CoreModule.dll_2886190D0F3D16E9.mvfrm
Library\Bee\artifacts\mvdfrm\UnityEngine.CrashReportingModule.dll_F59DE5194DC49621.mvfrm
Library\Bee\artifacts\mvdfrm\UnityEngine.DirectorModule.dll_873E320797AF5746.mvfrm
Library\Bee\artifacts\mvdfrm\UnityEngine.dll_A96B94D5665B7E5C.mvfrm
Library\Bee\artifacts\mvdfrm\UnityEngine.DSPGraphModule.dll_8C8F93710A102867.mvfrm
Library\Bee\artifacts\mvdfrm\UnityEngine.GameCenterModule.dll_EA97923D48BD4E01.mvfrm
Library\Bee\artifacts\mvdfrm\UnityEngine.GIModule.dll_B8185CAF9117566C.mvfrm
Library\Bee\artifacts\mvdfrm\UnityEngine.GridModule.dll_05F734FB2791ACE0.mvfrm
Library\Bee\artifacts\mvdfrm\UnityEngine.HotReloadModule.dll_C11870ADB6A601D0.mvfrm
Library\Bee\artifacts\mvdfrm\UnityEngine.ImageConversionModule.dll_D3B74D442D4625DB.mvfrm
Library\Bee\artifacts\mvdfrm\UnityEngine.IMGUIModule.dll_C21A4A4A2DBE97A1.mvfrm
Library\Bee\artifacts\mvdfrm\UnityEngine.InputLegacyModule.dll_4BA9F7AB04EEA92D.mvfrm
Library\Bee\artifacts\mvdfrm\UnityEngine.InputModule.dll_F0307293DDC52864.mvfrm
Library\Bee\artifacts\mvdfrm\UnityEngine.JSONSerializeModule.dll_5BDD10379EAA1232.mvfrm
Library\Bee\artifacts\mvdfrm\UnityEngine.LocalizationModule.dll_08B3BDEE45C7FF33.mvfrm
Library\Bee\artifacts\mvdfrm\UnityEngine.ParticleSystemModule.dll_48B02E65BBD621AF.mvfrm
Library\Bee\artifacts\mvdfrm\UnityEngine.PerformanceReportingModule.dll_884483BE9B63D4A8.mvfrm
Library\Bee\artifacts\mvdfrm\UnityEngine.Physics2DModule.dll_8C75A2987C6FDDE3.mvfrm
Library\Bee\artifacts\mvdfrm\UnityEngine.PhysicsModule.dll_D5155EF9AE3EA691.mvfrm
Library\Bee\artifacts\mvdfrm\UnityEngine.ProfilerModule.dll_B9846B3E3108DE53.mvfrm
Library\Bee\artifacts\mvdfrm\UnityEngine.RuntimeInitializeOnLoadManagerInitializerModule.dll_B765D4DC6F2994AC.mvfrm
Library\Bee\artifacts\mvdfrm\UnityEngine.ScreenCaptureModule.dll_75C4BDBCB3163E94.mvfrm
Library\Bee\artifacts\mvdfrm\UnityEngine.SharedInternalsModule.dll_57C88C19A474212B.mvfrm
Library\Bee\artifacts\mvdfrm\UnityEngine.SpriteMaskModule.dll_D3C404CD6A2CE37B.mvfrm
Library\Bee\artifacts\mvdfrm\UnityEngine.SpriteShapeModule.dll_D3C609E7229F2B46.mvfrm
Library\Bee\artifacts\mvdfrm\UnityEngine.StreamingModule.dll_F4649FF82AFA9D8C.mvfrm
Library\Bee\artifacts\mvdfrm\UnityEngine.SubstanceModule.dll_D10FB441764D9B9A.mvfrm
Library\Bee\artifacts\mvdfrm\UnityEngine.SubsystemsModule.dll_3E716B2F3874CB8E.mvfrm
Library\Bee\artifacts\mvdfrm\UnityEngine.TerrainModule.dll_EF5BDA6883FCEF7F.mvfrm
Library\Bee\artifacts\mvdfrm\UnityEngine.TerrainPhysicsModule.dll_492AD738D5191C3C.mvfrm
Library\Bee\artifacts\mvdfrm\UnityEngine.TextCoreFontEngineModule.dll_940A82A5E26A2E47.mvfrm
Library\Bee\artifacts\mvdfrm\UnityEngine.TextCoreTextEngineModule.dll_DBF2B91771EDE765.mvfrm
Library\Bee\artifacts\mvdfrm\UnityEngine.TextRenderingModule.dll_9F042FC76A4DBE89.mvfrm
Library\Bee\artifacts\mvdfrm\UnityEngine.TilemapModule.dll_8E5841E99BB9D088.mvfrm
Library\Bee\artifacts\mvdfrm\UnityEngine.TLSModule.dll_D0D36C89A8176B25.mvfrm
Library\Bee\artifacts\mvdfrm\UnityEngine.UIElementsModule.dll_42AFCC973BA10785.mvfrm
Library\Bee\artifacts\mvdfrm\UnityEngine.UIElementsNativeModule.dll_0B20554BC41EE7BC.mvfrm
Library\Bee\artifacts\mvdfrm\UnityEngine.UIModule.dll_1B4FB1CF51AF73FE.mvfrm
Library\Bee\artifacts\mvdfrm\UnityEngine.UmbraModule.dll_048F56FBF4B3AF33.mvfrm
Library\Bee\artifacts\mvdfrm\UnityEngine.UNETModule.dll_BB2C60F65C4C0C62.mvfrm
Library\Bee\artifacts\mvdfrm\UnityEngine.UnityAnalyticsModule.dll_684F9F2F67FD73AB.mvfrm
Library\Bee\artifacts\mvdfrm\UnityEngine.UnityConnectModule.dll_382A0294F74C3A1F.mvfrm
Library\Bee\artifacts\mvdfrm\UnityEngine.UnityCurlModule.dll_72EC53D94B86D83B.mvfrm
Library\Bee\artifacts\mvdfrm\UnityEngine.UnityTestProtocolModule.dll_27084B6D1C540A29.mvfrm
Library\Bee\artifacts\mvdfrm\UnityEngine.UnityWebRequestAssetBundleModule.dll_987D858D5DF3DEBC.mvfrm
Library\Bee\artifacts\mvdfrm\UnityEngine.UnityWebRequestAudioModule.dll_0040D79D21CE9F40.mvfrm
Library\Bee\artifacts\mvdfrm\UnityEngine.UnityWebRequestModule.dll_E55654EE383AC05A.mvfrm
Library\Bee\artifacts\mvdfrm\UnityEngine.UnityWebRequestTextureModule.dll_E280681B22699D15.mvfrm
Library\Bee\artifacts\mvdfrm\UnityEngine.UnityWebRequestWWWModule.dll_A6B4FE7361ADA3D1.mvfrm
Library\Bee\artifacts\mvdfrm\UnityEngine.VehiclesModule.dll_FF012B8711D926E1.mvfrm
Library\Bee\artifacts\mvdfrm\UnityEngine.VFXModule.dll_51B204F87E84D492.mvfrm
Library\Bee\artifacts\mvdfrm\UnityEngine.VideoModule.dll_AEC42F4E2A1F1F65.mvfrm
Library\Bee\artifacts\mvdfrm\UnityEngine.VirtualTexturingModule.dll_2FAD09BA9CCD6847.mvfrm
Library\Bee\artifacts\mvdfrm\UnityEngine.VRModule.dll_6E21D854F369F976.mvfrm
Library\Bee\artifacts\mvdfrm\UnityEngine.WindModule.dll_9ED4F435A0739552.mvfrm
Library\Bee\artifacts\mvdfrm\UnityEngine.XRModule.dll_A0E09B597CA446D4.mvfrm
Library\Bee\artifacts\mvdfrm\UnityEditor.WebGL.Extensions.dll_002D0CDCEF38E9D2.mvfrm
Library\Bee\artifacts\mvdfrm\UnityEditor.WindowsStandalone.Extensions.dll_88B62990DB874FC2.mvfrm
Library\Bee\artifacts\mvdfrm\Unity.Plastic.Antlr3.Runtime.dll_A555597E5CE8029A.mvfrm
Library\Bee\artifacts\mvdfrm\Unity.Plastic.Newtonsoft.Json.dll_9AD5865031CABBFB.mvfrm