Library\Bee\artifacts\mvdfrm\UnityEngine.UI.ref.dll_6C1073D56147DE5F.mvfrm
Library\Bee\artifacts\mvdfrm\UnityEngine.AccessibilityModule.dll_5EBA0A02E6C04E32.mvfrm
Library\Bee\artifacts\mvdfrm\UnityEngine.AIModule.dll_27C4B271E6866BA8.mvfrm
Library\Bee\artifacts\mvdfrm\UnityEngine.AndroidJNIModule.dll_70821B4FD3330566.mvfrm
Library\Bee\artifacts\mvdfrm\UnityEngine.AnimationModule.dll_926B94DF49635058.mvfrm
Library\Bee\artifacts\mvdfrm\UnityEngine.AssetBundleModule.dll_8A8A7C4D53BD6286.mvfrm
Library\Bee\artifacts\mvdfrm\UnityEngine.AudioModule.dll_1495DA91F96CDB4A.mvfrm
Library\Bee\artifacts\mvdfrm\UnityEngine.ClothModule.dll_7B7E378CD389BA2E.mvfrm
Library\Bee\artifacts\mvdfrm\UnityEngine.CoreModule.dll_E1F370388AFBBAFF.mvfrm
Library\Bee\artifacts\mvdfrm\UnityEngine.CrashReportingModule.dll_2F23B7AE555BA3F7.mvfrm
Library\Bee\artifacts\mvdfrm\UnityEngine.DirectorModule.dll_EBA13787390F50DC.mvfrm
Library\Bee\artifacts\mvdfrm\UnityEngine.dll_AF4EC086725D5E66.mvfrm
Library\Bee\artifacts\mvdfrm\UnityEngine.DSPGraphModule.dll_F0F298F0AB7021FD.mvfrm
Library\Bee\artifacts\mvdfrm\UnityEngine.GameCenterModule.dll_9ACF656A9973F657.mvfrm
Library\Bee\artifacts\mvdfrm\UnityEngine.GIModule.dll_C000FB7F823553C2.mvfrm
Library\Bee\artifacts\mvdfrm\UnityEngine.GridModule.dll_BF648C26A35050F6.mvfrm
Library\Bee\artifacts\mvdfrm\UnityEngine.HotReloadModule.dll_13B452E524966BDA.mvfrm
Library\Bee\artifacts\mvdfrm\UnityEngine.ImageConversionModule.dll_9C03CD8FAA1F17A5.mvfrm
Library\Bee\artifacts\mvdfrm\UnityEngine.IMGUIModule.dll_4CF579F8BF9E6F2B.mvfrm
Library\Bee\artifacts\mvdfrm\UnityEngine.InputLegacyModule.dll_1BCF976BEBAF1877.mvfrm
Library\Bee\artifacts\mvdfrm\UnityEngine.InputModule.dll_7B0BA2426FA4FFEE.mvfrm
Library\Bee\artifacts\mvdfrm\UnityEngine.JSONSerializeModule.dll_BED1933EE5FBAEBC.mvfrm
Library\Bee\artifacts\mvdfrm\UnityEngine.LocalizationModule.dll_AAE3ED89E8B2AE49.mvfrm
Library\Bee\artifacts\mvdfrm\UnityEngine.ParticleSystemModule.dll_823600FAC36D2F85.mvfrm
Library\Bee\artifacts\mvdfrm\UnityEngine.PerformanceReportingModule.dll_3FEA7AB7E8800EBE.mvfrm
Library\Bee\artifacts\mvdfrm\UnityEngine.Physics2DModule.dll_DF1184CFEA6047ED.mvfrm
Library\Bee\artifacts\mvdfrm\UnityEngine.PhysicsModule.dll_E006A9C2B28B335B.mvfrm
Library\Bee\artifacts\mvdfrm\UnityEngine.ProfilerModule.dll_1DE770BDD268D7E9.mvfrm
Library\Bee\artifacts\mvdfrm\UnityEngine.RuntimeInitializeOnLoadManagerInitializerModule.dll_773F5F5E021512B6.mvfrm
Library\Bee\artifacts\mvdfrm\UnityEngine.ScreenCaptureModule.dll_D8B940C3FA67DB1E.mvfrm
Library\Bee\artifacts\mvdfrm\UnityEngine.SharedInternalsModule.dll_20150C65214D12F5.mvfrm
Library\Bee\artifacts\mvdfrm\UnityEngine.SpriteMaskModule.dll_83FBD7FABAE38BD1.mvfrm
Library\Bee\artifacts\mvdfrm\UnityEngine.SpriteShapeModule.dll_A3EBA9A8095F9A90.mvfrm
Library\Bee\artifacts\mvdfrm\UnityEngine.StreamingModule.dll_4700822F98EB0796.mvfrm
Library\Bee\artifacts\mvdfrm\UnityEngine.SubstanceModule.dll_23AB9678E43E05A4.mvfrm
Library\Bee\artifacts\mvdfrm\UnityEngine.SubsystemsModule.dll_EEA93E5C892B73E4.mvfrm
Library\Bee\artifacts\mvdfrm\UnityEngine.TerrainModule.dll_FA4D253188497C49.mvfrm
Library\Bee\artifacts\mvdfrm\UnityEngine.TerrainPhysicsModule.dll_82B0A9CDDCB02A12.mvfrm
Library\Bee\artifacts\mvdfrm\UnityEngine.TextCoreFontEngineModule.dll_004FAE3EAC0F019D.mvfrm
Library\Bee\artifacts\mvdfrm\UnityEngine.TextCoreTextEngineModule.dll_4837E4B03B92BABB.mvfrm
Library\Bee\artifacts\mvdfrm\UnityEngine.TextRenderingModule.dll_01F8B2CEB19F5B13.mvfrm
Library\Bee\artifacts\mvdfrm\UnityEngine.TilemapModule.dll_99498CB2A0065D52.mvfrm
Library\Bee\artifacts\mvdfrm\UnityEngine.TLSModule.dll_8C3A8E03936CB56F.mvfrm
Library\Bee\artifacts\mvdfrm\UnityEngine.UIElementsModule.dll_F2E79FC48C57AFDB.mvfrm
Library\Bee\artifacts\mvdfrm\UnityEngine.UIElementsNativeModule.dll_FDCC0F3083D5AC52.mvfrm
Library\Bee\artifacts\mvdfrm\UnityEngine.UIModule.dll_2338509F42CD7154.mvfrm
Library\Bee\artifacts\mvdfrm\UnityEngine.UmbraModule.dll_8F6A86AA869386BD.mvfrm
Library\Bee\artifacts\mvdfrm\UnityEngine.UNETModule.dll_7499B821D80AB078.mvfrm
Library\Bee\artifacts\mvdfrm\UnityEngine.UnityAnalyticsModule.dll_A1D571C46F948181.mvfrm
Library\Bee\artifacts\mvdfrm\UnityEngine.UnityConnectModule.dll_DA5A32309A36E935.mvfrm
Library\Bee\artifacts\mvdfrm\UnityEngine.UnityCurlModule.dll_C5883610B9774245.mvfrm
Library\Bee\artifacts\mvdfrm\UnityEngine.UnityTestProtocolModule.dll_43668731797F7933.mvfrm
Library\Bee\artifacts\mvdfrm\UnityEngine.UnityWebRequestAssetBundleModule.dll_88765ED2E49C5D12.mvfrm
Library\Bee\artifacts\mvdfrm\UnityEngine.UnityWebRequestAudioModule.dll_B7E6CE966EEAD956.mvfrm
Library\Bee\artifacts\mvdfrm\UnityEngine.UnityWebRequestModule.dll_ADA2D539B513B224.mvfrm
Library\Bee\artifacts\mvdfrm\UnityEngine.UnityWebRequestTextureModule.dll_33D03200A9A195EB.mvfrm
Library\Bee\artifacts\mvdfrm\UnityEngine.UnityWebRequestWWWModule.dll_12FA2A0C2B527727.mvfrm
Library\Bee\artifacts\mvdfrm\UnityEngine.VehiclesModule.dll_63643106B3392077.mvfrm
Library\Bee\artifacts\mvdfrm\UnityEngine.VFXModule.dll_0D19267269DA1EDC.mvfrm
Library\Bee\artifacts\mvdfrm\UnityEngine.VideoModule.dll_399F5EFCBBFEF6EF.mvfrm
Library\Bee\artifacts\mvdfrm\UnityEngine.VRModule.dll_760A7724E487F6CC.mvfrm
Library\Bee\artifacts\mvdfrm\UnityEngine.WebGLModule.dll_B4024FA0EB42ED0D.mvfrm
Library\Bee\artifacts\mvdfrm\UnityEngine.WindModule.dll_58424B611C323968.mvfrm
Library\Bee\artifacts\mvdfrm\UnityEngine.XRModule.dll_A8C93A296DC2442A.mvfrm