Library\Bee\artifacts\mvdfrm\Unity.Services.Core.Internal.ref.dll_1A693ED936C5C9EF.mvfrm
Library\Bee\artifacts\mvdfrm\Unity.Services.Core.ref.dll_8733AE466239FA82.mvfrm
Library\Bee\artifacts\mvdfrm\UnityEngine.UI.ref.dll_FAE6DBEA21006BE5.mvfrm
Library\Bee\artifacts\mvdfrm\UnityEngine.AccessibilityModule.dll_2BF69A90C10DD656.mvfrm
Library\Bee\artifacts\mvdfrm\UnityEngine.AIModule.dll_525308DB3750EA44.mvfrm
Library\Bee\artifacts\mvdfrm\UnityEngine.AndroidJNIModule.dll_5E039616F800D202.mvfrm
Library\Bee\artifacts\mvdfrm\UnityEngine.AnimationModule.dll_F11393530B6C2F7C.mvfrm
Library\Bee\artifacts\mvdfrm\UnityEngine.ARModule.dll_0BC5CDDE946E490D.mvfrm
Library\Bee\artifacts\mvdfrm\UnityEngine.AssetBundleModule.dll_5B82505D383D4E2A.mvfrm
Library\Bee\artifacts\mvdfrm\UnityEngine.AudioModule.dll_73AE1BD71E03516E.mvfrm
Library\Bee\artifacts\mvdfrm\UnityEngine.ClothModule.dll_DA9678D1F8203052.mvfrm
Library\Bee\artifacts\mvdfrm\UnityEngine.ClusterInputModule.dll_0552C61239FC736C.mvfrm
Library\Bee\artifacts\mvdfrm\UnityEngine.ClusterRendererModule.dll_58F040E486DE1455.mvfrm
Library\Bee\artifacts\mvdfrm\UnityEngine.CoreModule.dll_598677F12E28651B.mvfrm
Library\Bee\artifacts\mvdfrm\UnityEngine.CrashReportingModule.dll_95EBE9CE16D1B793.mvfrm
Library\Bee\artifacts\mvdfrm\UnityEngine.DirectorModule.dll_2B918E7283EFA1F8.mvfrm
Library\Bee\artifacts\mvdfrm\UnityEngine.dll_22D4A130A1EA198A.mvfrm
Library\Bee\artifacts\mvdfrm\UnityEngine.DSPGraphModule.dll_30E2EFDBF6507319.mvfrm
Library\Bee\artifacts\mvdfrm\UnityEngine.GameCenterModule.dll_8850E031BE41C2F3.mvfrm
Library\Bee\artifacts\mvdfrm\UnityEngine.GIModule.dll_EA8F51E8D2FFD25E.mvfrm
Library\Bee\artifacts\mvdfrm\UnityEngine.GridModule.dll_36F793DF467CFB12.mvfrm
Library\Bee\artifacts\mvdfrm\UnityEngine.HotReloadModule.dll_725C5158E69F4AFE.mvfrm
Library\Bee\artifacts\mvdfrm\UnityEngine.ImageConversionModule.dll_C4E23E950902CC49.mvfrm
Library\Bee\artifacts\mvdfrm\UnityEngine.IMGUIModule.dll_AC0DBB3DE434E54F.mvfrm
Library\Bee\artifacts\mvdfrm\UnityEngine.InputLegacyModule.dll_ECC76B7BD02F041B.mvfrm
Library\Bee\artifacts\mvdfrm\UnityEngine.InputModule.dll_DA23E387943B7612.mvfrm
Library\Bee\artifacts\mvdfrm\UnityEngine.JSONSerializeModule.dll_8C0E23CCC04936E0.mvfrm
Library\Bee\artifacts\mvdfrm\UnityEngine.LocalizationModule.dll_439F9064D1786665.mvfrm
Library\Bee\artifacts\mvdfrm\UnityEngine.ParticleSystemModule.dll_E8FE331A84E34321.mvfrm
Library\Bee\artifacts\mvdfrm\UnityEngine.PerformanceReportingModule.dll_DFEA288B8565D4DA.mvfrm
Library\Bee\artifacts\mvdfrm\UnityEngine.Physics2DModule.dll_3DB98343AC692711.mvfrm
Library\Bee\artifacts\mvdfrm\UnityEngine.PhysicsModule.dll_632D4410644195FF.mvfrm
Library\Bee\artifacts\mvdfrm\UnityEngine.ProfilerModule.dll_5DD7C7A91D492905.mvfrm
Library\Bee\artifacts\mvdfrm\UnityEngine.RuntimeInitializeOnLoadManagerInitializerModule.dll_A5E6C526848239DA.mvfrm
Library\Bee\artifacts\mvdfrm\UnityEngine.ScreenCaptureModule.dll_A5F5D151D4B56342.mvfrm
Library\Bee\artifacts\mvdfrm\UnityEngine.SharedInternalsModule.dll_48F37D6A8030C799.mvfrm
Library\Bee\artifacts\mvdfrm\UnityEngine.SpriteMaskModule.dll_717D52C1DFB1586D.mvfrm
Library\Bee\artifacts\mvdfrm\UnityEngine.SpriteShapeModule.dll_74E37DB7EDDF8634.mvfrm
Library\Bee\artifacts\mvdfrm\UnityEngine.StreamingModule.dll_A5A880A35AF3E6BA.mvfrm
Library\Bee\artifacts\mvdfrm\UnityEngine.SubstanceModule.dll_825394ECA646E4C8.mvfrm
Library\Bee\artifacts\mvdfrm\UnityEngine.SubsystemsModule.dll_DC2AB923ADF94080.mvfrm
Library\Bee\artifacts\mvdfrm\UnityEngine.TerrainModule.dll_7D73BF7F39FFDEED.mvfrm
Library\Bee\artifacts\mvdfrm\UnityEngine.TerrainPhysicsModule.dll_E978DBED9E263DAE.mvfrm
Library\Bee\artifacts\mvdfrm\UnityEngine.TextCoreFontEngineModule.dll_F33B99E108871C39.mvfrm
Library\Bee\artifacts\mvdfrm\UnityEngine.TextCoreTextEngineModule.dll_3B23D052980AD557.mvfrm
Library\Bee\artifacts\mvdfrm\UnityEngine.TextRenderingModule.dll_CF35435C8BECE337.mvfrm
Library\Bee\artifacts\mvdfrm\UnityEngine.TilemapModule.dll_1C70270051BCBFF6.mvfrm
Library\Bee\artifacts\mvdfrm\UnityEngine.TLSModule.dll_2F6428C88963CF13.mvfrm
Library\Bee\artifacts\mvdfrm\UnityEngine.UIElementsModule.dll_E0691A8BB1257C77.mvfrm
Library\Bee\artifacts\mvdfrm\UnityEngine.UIElementsNativeModule.dll_0064BCF99F228B6E.mvfrm
Library\Bee\artifacts\mvdfrm\UnityEngine.UIModule.dll_4DC6A7089397EFF0.mvfrm
Library\Bee\artifacts\mvdfrm\UnityEngine.UmbraModule.dll_EE82C7EFAB29FCE1.mvfrm
Library\Bee\artifacts\mvdfrm\UnityEngine.UNETModule.dll_EC2CBFDA7B375A94.mvfrm
Library\Bee\artifacts\mvdfrm\UnityEngine.UnityAnalyticsModule.dll_089DA3E4310A951D.mvfrm
Library\Bee\artifacts\mvdfrm\UnityEngine.UnityConnectModule.dll_7315D50B82FCA151.mvfrm
Library\Bee\artifacts\mvdfrm\UnityEngine.UnityCurlModule.dll_243034847B802169.mvfrm
Library\Bee\artifacts\mvdfrm\UnityEngine.UnityTestProtocolModule.dll_4129246D6973EA57.mvfrm
Library\Bee\artifacts\mvdfrm\UnityEngine.UnityWebRequestAssetBundleModule.dll_6C9E7E30AFE5C5AE.mvfrm
Library\Bee\artifacts\mvdfrm\UnityEngine.UnityWebRequestAudioModule.dll_57E67C6A0BD09F72.mvfrm
Library\Bee\artifacts\mvdfrm\UnityEngine.UnityWebRequestModule.dll_D681463F13F766C8.mvfrm
Library\Bee\artifacts\mvdfrm\UnityEngine.UnityWebRequestTextureModule.dll_DC5EA0EE07E57787.mvfrm
Library\Bee\artifacts\mvdfrm\UnityEngine.UnityWebRequestWWWModule.dll_05E615AE87CA91C3.mvfrm
Library\Bee\artifacts\mvdfrm\UnityEngine.VehiclesModule.dll_A35487F1FE197193.mvfrm
Library\Bee\artifacts\mvdfrm\UnityEngine.VFXModule.dll_B042C1375FD13880.mvfrm
Library\Bee\artifacts\mvdfrm\UnityEngine.VideoModule.dll_98B7A041E0956D13.mvfrm
Library\Bee\artifacts\mvdfrm\UnityEngine.VirtualTexturingModule.dll_24F1716877D10BF9.mvfrm
Library\Bee\artifacts\mvdfrm\UnityEngine.VRModule.dll_A098CD8E35527568.mvfrm
Library\Bee\artifacts\mvdfrm\UnityEngine.WindModule.dll_CFD55319BF5EE384.mvfrm
Library\Bee\artifacts\mvdfrm\UnityEngine.XRModule.dll_D3579092BE8CC2C6.mvfrm